{
  "kind": "collectionType",
  "collectionName": "main_banners",
  "info": {
    "singularName": "main-banner",
    "pluralName": "main-banners",
    "displayName": "main_banner"
  },
  "options": {
    "draftAndPublish": true
  },
  "pluginOptions": {},
  "attributes": {
    "title": {
      "type": "string",
      "required": true
    },
    "description": {
      "type": "text"
    },
    "image": {
      "allowedTypes": [
        "images",
        "files",
        "videos",
        "audios"
      ],
      "type": "media",
      "multiple": false
    },
    "link": {
      "type": "string"
    }
  }
}
