{
  "kind": "collectionType",
  "collectionName": "brands",
  "info": {
    "singularName": "brand",
    "pluralName": "brands",
    "displayName": "brand"
  },
  "options": {
    "draftAndPublish": true
  },
  "pluginOptions": {},
  "attributes": {
    "title": {
      "type": "string",
      "required": true
    },
    "image": {
      "allowedTypes": [
        "images",
        "files",
        "videos",
        "audios"
      ],
      "type": "media",
      "multiple": false
    }
  }
}
